{
  "type": "service_account",
  "project_id": "vstoaddin-1601210271267",
  "private_key_id": "5d7f67312af0fb5738b3f85efd389b91bee94829",
  "private_key": "-----BEGIN PRIVATE KEY-----\nMIIEvQIBADANBgkqhkiG9w0BAQEFAASCBKcwggSjAgEAAoIBAQDTabUeXtfUhu59\nGeTYMhtBjy8SDeZR0hMlj2kiwvuLSA80o/vgixTXnSRse+bpDT5Nzql1P+0bl/yF\nQzOAyhnu52mN1PtOFKszuNFe/FeN/PANDWv/zzunxFo05PSRE+q0Tp4+okKLEMRy\ntMm/4qV8om6Zzh5WmgqWR2BJEY5ylv1+pWKCfbUEpfwohtJ5OLlbvTB9X/XRC3ID\nITyNWNjZbmB+Fnr2A16C3T/NMdXpwVuM4J4wXzIbVwuoti9ShGTWb+N+J9sftvpC\nbbDPyA4lXqRq3E5hsj7+1De8IfIPZ8soIWLqZ+pcbImpgYKOKGGlNh1eU7XdGxHq\n3QdHdY/jAgMBAAECggEAIeh1w5XpVA2tjqRqjz+/c2JoZaLpFVJ2U7M5ZPk/qHU5\noHMfYO0DE29Wz4zdL5/k0EycjVEK0emB96BxpZnEqGFhYqg4WQD4/JC2CWARGEBA\nrYyWN9n1yCYMDykcY3B9rRxhm8t2lMtvAV7RxP8Fv9m67NxMWA4uMzA7gedY9jPK\nqUlDbe9OaqGS6ROdi+e43hbSxlRVix9xJkmDAdKGm2LNe1fplRsXUJxd3LDPPgRN\nZ+bZbFtps5BBmOCRsPPww2uRm7g3qcFv/vPeNssAe7Ll+JQ29wF41KAVwz7svhxe\nT7oK6Sk0bPq4XnVd96djxDw4rNuOTwsIHstklaGJ4QKBgQD3+/2l2vukVn/IKAHt\nZIzneUtFoOAttecYnf/zRrQXBDNx+8eJ+LTWxeuDQR0cmSHt5Zb1pEd7Y260/+ts\nfd5crRSJG3ukxpjksZd7jXaAjZmtsligym7LBY2nPKB9c6NTLaiqdgZkLHU5HO0T\nfDIEjkRKR79sPn7Ro2TYGPUUewKBgQDaPxjjM/OdQcVtybVUR5Lxa5oMkpSAoVQT\n5LdUAhrNSCI3BHVNQKvtoQZ9zNDGqEtevlIuxunDYBHHMvGiLLEH5q6Sf+s1X+TO\n4QgnyG837bUseeLJOmFhemG8G/WkzjQJBCf2DxAPTLWKWsoA9lPNX68m27NFUY1R\nVOirVUFZuQKBgEwJgUHcvnIqb63wzn566VWEdJcZ+AMsFnsO308567hu+lNF724X\ny2NbdpZdXc7KCYRHdJ1HTP/Bgk2PdyFiCs+B5p0Pxz7EAleFOLySqLZMNMX0vIY4\n6/XmcwPHbDJrRbYYdvIllFoc46iqfOsPlsqc0MWx8DkBhKNFJYO5S1SHAoGAaFKm\n89wehDovRGaZ3dqEvBAiSAY9JCt5xDSdCXQkGaJ0cHYaGD5ksKc7MiEYXw2NUZGK\nOT/t9+1RMjYA2POh/9Pd+Lta1F2tQtLAkju2JjbjVopAxM26RN06ILAAwLGsn+6z\np2PV2mphkOwLCWC1+ELXt6xnSihMc+cxfMy4+0kCgYEAyisHcp1hJ3DFt55FnJE5\noUHhlNsRJbESrVSol28NB50HLo1Ps4YHdaXkmn+OSnowYZKGUHtQrIgvO6jtwvuq\nO1Km00Hf+vSQm5qM7Mfwy+V1+TBmhJzuswuirqKKlSyhmXP4XZiVr/++9iRvuao9\nXHa0r5SRWN2iFSI8rcDc5AU=\n-----END PRIVATE KEY-----\n",
  "client_email": "serviceaccount@vstoaddin-1601210271267.iam.gserviceaccount.com",
  "client_id": "100771244059551248345",
  "auth_uri": "https://accounts.google.com/o/oauth2/auth",
  "token_uri": "https://oauth2.googleapis.com/token",
  "auth_provider_x509_cert_url": "https://www.googleapis.com/oauth2/v1/certs",
  "client_x509_cert_url": "https://www.googleapis.com/robot/v1/metadata/x509/serviceaccount%40vstoaddin-1601210271267.iam.gserviceaccount.com"
}
